{
  "app-id": "io.missioncenter.MissionCenter",
  "runtime": "org.gnome.Platform",
  "runtime-version": "44",
  "sdk": "org.gnome.Sdk",
  "command": "missioncenter",
  "build-options": {
    "no-debuginfo": true,
    "append-path": "/app/rust-toolchain/bin",
    "env": {
      "RUSTUP_HOME": "/app/rust-toolchain/",
      "RUST_BACKTRACE": "full"
    }
  },
  "finish-args": [
    "--share=network",
    "--share=ipc",
    "--socket=fallback-x11",
    "--device=shm",
    "--device=all",
    "--socket=wayland",
    "--talk-name=org.freedesktop.Flatpak",
    "--talk-name=org.gnome.Settings",
    "--system-talk-name=org.freedesktop.systemd1",
    "--system-talk-name=org.freedesktop.NetworkManager",
    "--filesystem=xdg-data/flatpak/exports/share:ro",
    "--filesystem=/var/lib/flatpak/exports/share:ro",
    "--filesystem=xdg-data/flatpak/app:ro",
    "--filesystem=/var/lib/flatpak/app:ro",
    "--filesystem=/snap:ro",
    "--env=XDG_DATA_DIRS=/app/share:/usr/share:/usr/share/runtime/share:/run/host/user-share:/run/host/share:/var/lib/flatpak/exports/share:~/.local/share/flatpak/exports/share"
  ],
  "cleanup": [
    "/sbin",
    "/etc",
    "/sbin",
    "/include",
    "/lib/pkgconfig",
    "/lib/python*",
    "/man",
    "/share/doc",
    "/share/gtk-doc",
    "/share/man",
    "/share/pkgconfig",
    "*.la",
    "*.a"
  ],
  "modules": [
    {
      "name": "build-tools",
      "buildsystem": "simple",
      "build-commands": [
        "echo 'Extract the cross-toolchain manually, it fails otherwise.'",
        "mkdir cross-rootfs && cd cross-rootfs && tar xf ../ubuntu-14.04-*.tar.zst && rm ../ubuntu-14.04-*.tar.zst",
        "mv * /app/"
      ],
      "sources": [
        {
          "type": "archive",
          "url": "https://missioncenter.io/build-tools/rust-toolchain-1.71.0-x86_64.tar.zst",
          "dest": "rust-toolchain",
          "sha256": "b5afacde977aa18a59385628dd8ec2bf6f18738b27e009df0c750efc4d5578ee",
          "only-arches": [
            "x86_64"
          ]
        },
        {
          "type": "file",
          "url": "https://missioncenter.io/build-tools/ubuntu-14.04-x86_64_r2.tar.zst",
          "sha256": "1a402987c082fcafe5e2b9e73d8071367f04ee96bda70ffd1679ddd859fc9da7",
          "only-arches": [
            "x86_64"
          ]
        },
        {
          "type": "archive",
          "url": "https://missioncenter.io/build-tools/rust-toolchain-1.71.0-aarch64.tar.zst",
          "dest": "rust-toolchain",
          "sha256": "5bac97fe7f6c16529e952ced5f0e99b614fa246445a092473ad31ba59929b34b",
          "only-arches": [
            "aarch64"
          ]
        },
        {
          "type": "file",
          "url": "https://missioncenter.io/build-tools/ubuntu-14.04-aarch64_r2.tar.zst",
          "sha256": "3cb390f9198c5a7d48c0d6e8604bc0d190864f7f0ffd4b451ad25f39c92b684a",
          "only-arches": [
            "aarch64"
          ]
        }
      ],
      "cleanup": [
        "*"
      ]
    },
    {
      "name": "musl-libc",
      "buildsystem": "autotools",
      "config-opts": [
        "--prefix=/app/musl-libc"
      ],
      "post-install": [
        "tar xf libgcc*.xbps && mv usr/lib/libgcc_s.so.1 /app/musl-libc/lib/ && ln -s libgcc_s.so.1 /app/musl-libc/lib/libgcc_s.so && rm -rf usr libgcc*.xbps"
      ],
      "sources": [
        {
          "type": "archive",
          "url": "https://musl.libc.org/releases/musl-1.2.3.tar.gz",
          "sha256": "7d5b0b6062521e4627e099e4c9dc8248d32a30285e959b7eecaa780cf8cfd4a4"
        },
        {
          "type": "file",
          "url": "https://missioncenter.io/build-tools/libgcc-12.2.0_3.x86_64-musl.xbps",
          "sha256": "3417ca6a7c5ff0957c45ae251d9c7505d65a21fd9cad971db11a2149a8901a2a",
          "only-arches": [
            "x86_64"
          ]
        },
        {
          "type": "file",
          "url": "https://missioncenter.io/build-tools/libgcc-12.2.0_3.aarch64-musl.xbps",
          "sha256": "8dda86feba5e5c525f21115ba5bde6a12c2c740a17e5c019590cb11fa3a4df5e",
          "only-arches": [
            "aarch64"
          ]
        }
      ],
      "cleanup": [
        "*"
      ]
    },
    {
      "name": "missioncenter-gatherer",
      "buildsystem": "simple",
      "build-options": {
        "env": {
          "CARGO_HOME": "/build-dir/src/gatherer/cargo"
        }
      },
      "build-commands": [
        "cd src/sys_info_v2/gatherer && cargo build --offline --release --target $(arch)-unknown-linux-musl",
        "install -v -p -m 755 src/sys_info_v2/gatherer/target/$(arch)-unknown-linux-musl/release/gatherer /app/bin/missioncenter-gatherer-musl",
        "rm -rf src/gatherer/target",
        "",
        "/app/bin/proot -b /app/rust-toolchain:/app/rust-toolchain -b $PWD:/build-dir -R /app/cross-rootfs /bin/sh -c 'cd /build-dir/src/sys_info_v2/gatherer && /app/rust-toolchain/bin/cargo build --offline --release'",
        "install -v -p -m 755 src/sys_info_v2/gatherer/target/release/gatherer /app/bin/missioncenter-gatherer-glibc"
      ],
      "sources": [
        {
          "type": "dir",
          "path": ".."
        },
        {
          "type": "inline",
          "contents": "[source.vendored-sources]\ndirectory = \"../../../cargo/vendor\"\n\n[source.crates-io]\nreplace-with = \"vendored-sources\"\n\n[target.x86_64-unknown-linux-musl]\nlinker = \"/app/musl-libc/bin/musl-gcc\"\nrustflags = [ '-C', 'target-feature=-crt-static' ]\n\n[target.aarch64-unknown-linux-musl]\nlinker = \"/app/musl-libc/bin/musl-gcc\"\nrustflags = [ '-C', 'target-feature=-crt-static' ]\n",
          "dest": "src/sys_info_v2/gatherer/.cargo",
          "dest-filename": "config.toml"
        },
        "cargo-sources-gatherer.json"
      ],
      "modules": [
        {
          "name": "proot",
          "buildsystem": "simple",
          "build-commands": [
            "make -C src loader.elf build.h",
            "make -C src proot",
            "install -v -p -m 755 src/proot /app/bin/proot"
          ],
          "sources": [
            {
              "type": "git",
              "url": "https://github.com/proot-me/proot.git",
              "tag": "v5.4.0",
              "commit": "bd5a5f63d72f8210d8cee76195eb9f0749e5bd70"
            }
          ],
          "modules": [
            {
              "name": "libarchive",
              "buildsystem": "autotools",
              "config-opts": [
                "--disable-bsdcat",
                "--disable-bsdcpio",
                "--disable-bsdtar"
              ],
              "sources": [
                {
                  "type": "archive",
                  "url": "https://libarchive.org/downloads/libarchive-3.6.2.tar.xz",
                  "sha256": "9e2c1b80d5fbe59b61308fdfab6c79b5021d7ff4ff2489fb12daf0a96a83551d"
                }
              ],
              "cleanup": [
                "*"
              ]
            },
            {
              "name": "libtalloc",
              "buildsystem": "autotools",
              "sources": [
                {
                  "type": "archive",
                  "url": "https://www.samba.org/ftp/talloc/talloc-2.4.1.tar.gz",
                  "sha256": "410a547f08557007be0e88194f218868358edc0ab98c98ba8c167930db3d33f9"
                }
              ],
              "cleanup": [
                "*"
              ]
            }
          ],
          "cleanup": [
            "*"
          ]
        }
      ]
    },
    {
      "name": "missioncenter",
      "buildsystem": "meson",
      "builddir": true,
      "config-opts": [
        "-Dbuildtype=release",
        "-Dflatpak=true",
        "-Dcargo_env='CARGO_HOME=/run/build/missioncenter/cargo'"
      ],
      "sources": [
        {
          "type": "dir",
          "path": ".."
        },
        {
          "type": "archive",
          "url": "https://github.com/Syllo/nvtop/archive/be47f8c560487efc6e6a419d59c69bfbdb819324.tar.gz",
          "sha256": "47c963deb1d22c75e92ca2cc7fcd1e1552cfa6da70e9d51be6a80da45249035f",
          "dest": "subprojects/nvtop-be47f8c560487efc6e6a419d59c69bfbdb819324"
        },
        {
          "type": "shell",
          "commands": [
            "cd subprojects/nvtop-* && find ../packagefiles -type f -name 'nvtop-*' -exec sh -c 'patch -p1 < {}' \\;"
          ]
        },
        {
          "type": "inline",
          "contents": "[source.vendored-sources]\ndirectory = \"cargo/vendor\"\n\n[source.crates-io]\nreplace-with = \"vendored-sources\"\n\n[source.\"https://github.com/servo/pathfinder\"]\ngit = \"https://github.com/servo/pathfinder\"\nreplace-with = \"vendored-sources\"\nrev = \"21ec6fa933547636bc6c5ee8f0dd4a0ea3fcd062\"\n",
          "dest": ".cargo",
          "dest-filename": "config.toml"
        },
        "cargo-sources.json"
      ],
      "modules": [
        {
          "name": "eudev",
          "buildsystem": "autotools",
          "cleanup": [
            "/bin",
            "/sbin",
            "/etc",
            "/lib/udev"
          ],
          "sources": [
            {
              "type": "git",
              "url": "https://github.com/eudev-project/eudev.git",
              "commit": "39979ddf46e75d1b75bf381e1c73914c226c4302"
            }
          ]
        },
        {
          "name": "blueprint-compiler",
          "buildsystem": "meson",
          "sources": [
            {
              "type": "git",
              "url": "https://gitlab.gnome.org/jwestman/blueprint-compiler",
              "commit": "2a39a16391122af2f3d812e478c1c1398c98b972"
            }
          ],
          "cleanup": [
            "*"
          ]
        },
        {
          "name": "static-binaries",
          "buildsystem": "simple",
          "build-commands": [
            "/bin/true"
          ],
          "modules": [
            {
              "name": "dmidecode",
              "buildsystem": "simple",
              "build-commands": [
                "make CC=/app/musl-libc/bin/musl-gcc CFLAGS=\"-static -I/app/musl-libc/include\" LDFLAGS=\"-static -L/app/musl-libc/lib\" install-bin prefix=/app",
                "install -v -p -m 755 /app/sbin/dmidecode /app/bin/dmidecode"
              ],
              "sources": [
                {
                  "type": "archive",
                  "url": "https://git.savannah.nongnu.org/cgit/dmidecode.git/snapshot/dmidecode-3-5.tar.gz",
                  "sha256": "8b1465a1afa71f9ffb0206ba5ffc435c46c0281d089552578f600879728a1b23"
                }
              ]
            }
          ]
        }
      ]
    }
  ]
}
